<?xml version="1.0" encoding="UTF-8" standalone="no"?>
<!-- Created with Inkscape (http://www.inkscape.org/) -->

<svg xmlns:dc="http://purl.org/dc/elements/1.1/" xmlns:cc="http://creativecommons.org/ns#" xmlns:rdf="http://www.w3.org/1999/02/22-rdf-syntax-ns#" xmlns:svg="http://www.w3.org/2000/svg" xmlns="http://www.w3.org/2000/svg" xmlns:xlink="http://www.w3.org/1999/xlink" xmlns:sodipodi="http://sodipodi.sourceforge.net/DTD/sodipodi-0.dtd" xmlns:inkscape="http://www.inkscape.org/namespaces/inkscape" width="800px" height="600px" viewBox="0 0 800 600" version="1.1" id="SVGRoot" inkscape:version="0.92pre0 unknown" sodipodi:docname="icons.svg">
  <sodipodi:namedview id="base" pagecolor="#ffffff" bordercolor="#666666" borderopacity="1.0" inkscape:pageopacity="0.0" inkscape:pageshadow="2" inkscape:zoom="0.84375" inkscape:cx="400" inkscape:cy="300" inkscape:document-units="px" inkscape:current-layer="layer1" showgrid="false" inkscape:window-width="1169" inkscape:window-height="752" inkscape:window-x="57" inkscape:window-y="0" inkscape:window-maximized="0" inkscape:snap-center="true" showguides="false" inkscape:guide-bbox="true" inkscape:locked="false" inkscape:snap-smooth-nodes="true">
    <inkscape:grid type="xygrid" id="grid3434" spacingx="0.5" spacingy="0.5" empspacing="2" />
  </sodipodi:namedview>
  <defs id="defs3418">
    <linearGradient xlink:href="#linearGradient1610" gradientTransform="translate(-539.0001,-301)" gradientUnits="userSpaceOnUse" y2="308.5" x2="536.5" y1="308.5" x1="522.99103" id="linearGradient9331" inkscape:collect="always" />
    <linearGradient id="linearGradient1610">
      <stop id="stop1611" offset="0" style="stop-color:#000000;stop-opacity:1" />
      <stop id="stop3053" offset="0.35076979" style="stop-color:#7f7f7f;stop-opacity:1" />
      <stop id="stop3054" offset="0.59668732" style="stop-color:#bfbfbf;stop-opacity:1" />
      <stop id="stop3055" offset="0.78382427" style="stop-color:#dfdfdf;stop-opacity:1" />
      <stop id="stop1612" offset="1" style="stop-color:#ffffff;stop-opacity:1" />
    </linearGradient>
    <linearGradient xlink:href="#linearGradient5704" gradientUnits="userSpaceOnUse" y2="309.7338" x2="698.72693" y1="304.22421" x1="695.0141" id="linearGradient4649" inkscape:collect="always" gradientTransform="matrix(0.941445,0,0,1.002693,-649.0319,-302.5976)" />
    <linearGradient id="linearGradient5704">
      <stop style="stop-color:#5a5a5a;stop-opacity:1" offset="0" id="stop5706" />
      <stop style="stop-color:#000000;stop-opacity:1" offset="1" id="stop5708" />
    </linearGradient>
    <linearGradient xlink:href="#linearGradient5704" gradientTransform="matrix(1,0,0,1.066667,-690.5002,-323.0162)" gradientUnits="userSpaceOnUse" y2="311.07901" x2="698.26788" y1="303.70071" x1="693.27899" id="linearGradient4610" inkscape:collect="always" />
    <linearGradient xlink:href="#linearGradient5704" gradientTransform="matrix(1,0,0,1.066667,-690.5002,-323.0162)" gradientUnits="userSpaceOnUse" y2="311.81979" x2="696.86682" y1="306.0704" x1="693.40259" id="linearGradient4618" inkscape:collect="always" />
    <linearGradient xlink:href="#linearGradient2485" y2="240.8761" x2="717.6405" y1="248.9147" x1="713.50842" gradientTransform="matrix(0.83737537,0,0,-0.645052,-589.95852,166.48798)" gradientUnits="userSpaceOnUse" id="linearGradient12555" inkscape:collect="always" />
    <linearGradient id="linearGradient2485">
      <stop id="stop2486" offset="0" style="stop-color:#ffffff;stop-opacity:1" />
      <stop id="stop2487" offset="1" style="stop-color:#aaaaaa;stop-opacity:1" />
    </linearGradient>
    <linearGradient xlink:href="#linearGradient2485" y2="244.6786" x2="717.60321" y1="249.9805" x1="712.98602" gradientTransform="matrix(0.823809,0,0,-0.639827,-580.18001,166.22047)" gradientUnits="userSpaceOnUse" id="linearGradient12592" inkscape:collect="always" />
    <linearGradient xlink:href="#linearGradient12513" gradientUnits="userSpaceOnUse" y2="712.16718" x2="61.995979" y1="715.75952" x1="64.608963" id="linearGradient12519" inkscape:collect="always" gradientTransform="matrix(0.69406403,0,0,0.61041031,-35.780394,-427.4695)" />
    <linearGradient id="linearGradient12513">
      <stop style="stop-color:black;stop-opacity:1" offset="0" id="stop12515" />
      <stop style="stop-color:#2a2a2a;stop-opacity:1" offset="1" id="stop12517" />
    </linearGradient>
    <linearGradient xlink:href="#linearGradient5740" y2="153.34219" x2="176.0136" y1="167.85339" x1="182.98129" gradientUnits="userSpaceOnUse" id="linearGradient8492" inkscape:collect="always" gradientTransform="matrix(0.52013709,0,0,0.52179051,-87.101532,-76.967937)" />
    <linearGradient id="linearGradient5740">
      <stop id="stop5742" offset="0" style="stop-color:#ffffff;stop-opacity:1" />
      <stop id="stop5744" offset="1" style="stop-color:#98b6d3;stop-opacity:1" />
    </linearGradient>
    <linearGradient xlink:href="#linearGradient5704" gradientUnits="userSpaceOnUse" y2="159" x2="186.7169" y1="159" x1="171.2831" id="linearGradient4819" inkscape:collect="always" gradientTransform="matrix(0.52013709,0,0,0.52179051,-87.101532,-76.967937)" />
    <linearGradient xlink:href="#linearGradient5740" y2="37.219669" x2="-23.224421" y1="34.12175" x1="-26.25288" gradientTransform="matrix(0.483821,0,0,0.485303,16.646503,-12.444909)" gradientUnits="userSpaceOnUse" id="linearGradient8494" inkscape:collect="always" />
    <linearGradient xlink:href="#linearGradient800" y2="120.5792" x2="98.377357" y1="120.625" x1="95.237877" gradientTransform="matrix(-0.28509424,0.28596751,-0.35456967,-0.35565576,80.985334,25.787421)" gradientUnits="userSpaceOnUse" id="linearGradient8496" inkscape:collect="always" />
    <linearGradient id="linearGradient800">
      <stop id="stop998" offset="0" style="stop-color:#f3ff49;stop-opacity:1" />
      <stop id="stop999" offset="1" style="stop-color:#ffa01e;stop-opacity:1" />
    </linearGradient>
    <linearGradient xlink:href="#linearGradient800" y2="117.8514" x2="89.752327" y1="119.8891" x1="85.258904" gradientUnits="userSpaceOnUse" id="linearGradient8498" inkscape:collect="always" gradientTransform="matrix(-0.34211322,0.34316115,-0.35456967,-0.35565576,83.878801,23.685317)" />
    <linearGradient xlink:href="#linearGradient5858" y2="117.4021" x2="75.142403" y1="123.2129" x1="65.277161" gradientTransform="matrix(-0.28940863,0.29029512,-0.35456967,-0.35565576,73.644402,34.395638)" gradientUnits="userSpaceOnUse" id="linearGradient8500" inkscape:collect="always" />
    <linearGradient id="linearGradient5858">
      <stop style="stop-color:#ffa01e" offset="0" id="stop5860" />
      <stop style="stop-color:#000000;stop-opacity:1" offset="1" id="stop5862" />
    </linearGradient>
    <linearGradient xlink:href="#linearGradient2485" y2="125.9596" x2="89.703491" y1="125.8732" x1="85.640419" gradientUnits="userSpaceOnUse" id="linearGradient8502" inkscape:collect="always" gradientTransform="matrix(-0.34211322,0.34316115,-0.35456967,-0.35565576,83.878801,23.685317)" />
    <linearGradient xlink:href="#linearGradient5704" gradientUnits="userSpaceOnUse" y2="125.3162" x2="91.620613" y1="125.3162" x1="84.629387" id="linearGradient4811" inkscape:collect="always" gradientTransform="matrix(-0.34211322,0.34316115,-0.35456967,-0.35565576,83.878801,23.685317)" />
    <linearGradient xlink:href="#linearGradient16137" y2="719.93762" x2="54.737839" y1="729.3028" x1="64.23671" gradientTransform="matrix(0.77281913,-0.12706216,0.14807809,0.64435631,-142.8478,-447.37558)" gradientUnits="userSpaceOnUse" id="linearGradient4859" inkscape:collect="always" />
    <linearGradient id="linearGradient16137">
      <stop style="stop-color:#db5d00;stop-opacity:1" offset="0" id="stop16139" />
      <stop style="stop-color:#ffd749;stop-opacity:1" offset="0.35076979" id="stop16141" />
      <stop style="stop-color:#fff593;stop-opacity:1" offset="0.59668732" id="stop16143" />
      <stop style="stop-color:#fff7c2;stop-opacity:1" offset="0.78382427" id="stop16145" />
      <stop style="stop-color:#ffffff;stop-opacity:1" offset="1" id="stop16147" />
    </linearGradient>
    <linearGradient xlink:href="#linearGradient16137" y2="729.99908" x2="60.495441" y1="715.91302" x1="54.463459" gradientTransform="matrix(0.75350403,5.3909306e-7,-5.2547357e-7,0.70814761,-35.69628,-500.13632)" gradientUnits="userSpaceOnUse" id="linearGradient4849" inkscape:collect="always" />
    <linearGradient xlink:href="#linearGradient5740" y2="246.8192" x2="683.84698" y1="252.3578" x1="673.64648" gradientUnits="userSpaceOnUse" id="linearGradient8709" inkscape:collect="always" gradientTransform="translate(-673,-243.961)" />
    <linearGradient xlink:href="#linearGradient5740" y2="251.91589" x2="678.73242" y1="256.07169" x1="671.7674" gradientUnits="userSpaceOnUse" id="linearGradient8711" inkscape:collect="always" gradientTransform="translate(-673,-243.961)" />
    <linearGradient xlink:href="#BlackTransparent" y2="520.9999" x2="37" y1="509.9999" x1="26" gradientTransform="translate(-24,-507.9999)" gradientUnits="userSpaceOnUse" id="linearGradient5617" inkscape:collect="always" />
    <linearGradient id="BlackTransparent" gradientUnits="userSpaceOnUse">
      <stop style="stop-color:black;stop-opacity:1" offset="0" id="stop12" />
      <stop style="stop-color:black;stop-opacity:0" offset="1" id="stop14" />
    </linearGradient>
    <linearGradient xlink:href="#linearGradient5740" y2="174.9998" x2="-40.9295" y1="192.3364" x1="-28.95404" gradientTransform="matrix(0.751537,0,0,0.6921778,35.76003,-119.131)" gradientUnits="userSpaceOnUse" id="linearGradient5619" inkscape:collect="always" />
    <linearGradient id="linearGradient10585">
      <stop style="stop-color:#d7d7d7;stop-opacity:1" offset="0" id="stop10587" />
      <stop style="stop-color:#000000;stop-opacity:1" offset="1" id="stop10595" />
    </linearGradient>
    <linearGradient inkscape:collect="always" xlink:href="#linearGradient10585" id="linearGradient3755" gradientUnits="userSpaceOnUse" x1="5.6449151" y1="209.9819" x2="13.52223" y2="214.7789" gradientTransform="matrix(0.625904,0,0,0.672041,-0.9148,-135.6717)" />
    <linearGradient inkscape:collect="always" xlink:href="#linearGradient10585" id="linearGradient3759" gradientUnits="userSpaceOnUse" x1="5.6449151" y1="209.9819" x2="13.52223" y2="214.7789" gradientTransform="matrix(0.625904,0,0,0.672041,-2.9084,-134.6717)" />
  </defs>
  <metadata id="metadata3421">
    <rdf:RDF>
      <cc:Work rdf:about="">
        <dc:format>image/svg+xml</dc:format>
        <dc:type rdf:resource="http://purl.org/dc/dcmitype/StillImage" />
        <dc:title></dc:title>
      </cc:Work>
    </rdf:RDF>
  </metadata>
  <g id="layer1" inkscape:groupmode="layer" inkscape:label="Layer 1">
    <g id="object-visible" transform="translate(20,20)">
      <rect y="0" x="0" height="16" width="16" id="rect7393" style="fill:none;stroke:none" />
      <rect id="rect6472" width="12" height="12" x="2" y="2" style="fill:none;stroke:none" />
      <g id="g4453">
        <path id="path4926" style="color:#000000;fill:url(#linearGradient12592);fill-rule:evenodd;stroke:#000000;stroke-width:0.8;stroke-linecap:round" d="m 11.237104,6.1548206 c 0.83839,0.4821097 1.596789,1.2187425 2.29958,2.2879574 -1.510371,2.297811 -2.761325,3.261902 -5.0268824,3.261902 -2.2654747,0 -4.5970189,-1.198268 -5.9281295,-3.3152636 C 4.0920435,6.0915418 7.0657468,4.9646784 9.4252182,5.4403258 M 5.8133924,5.6361769 4.9570429,3.0270264 M 3.7065833,6.8233759 2.4296793,5.2044856 M 8.4097088,5.3466552 8.5042821,2.321873 m 1.9978189,3.4237143 1.260016,-2.4239206 m 0.51002,3.3937704 1.33004,-1.2411365" sodipodi:nodetypes="ccscscccccccccc" inkscape:connector-curvature="0" />
        <circle style="color:#000000;fill:url(#linearGradient12519);fill-rule:evenodd;stroke-width:1.9687923" id="path5671" cx="8.2926722" cy="8.3634615" r="2.429224" />
        <circle r="0.77574885" style="color:#000000;fill:#ffffff;fill-rule:evenodd;stroke-width:0.6328589" id="path12489" cx="7.4378791" cy="7.2934408" />
      </g>
    </g>
    <g id="object-hidden" transform="translate(20,40)">
      <rect y="0" x="0" height="16" width="16" id="rect7399" style="stroke:none;fill:none" />
      <rect id="rect12545" width="12" height="12" x="2" y="2" style="fill:none;stroke:none" />
      <g id="g4474">
        <path id="path12549" style="color:#000000;fill:url(#linearGradient12555);fill-rule:evenodd;stroke:#000000;stroke-width:0.8;stroke-linecap:round" d="m 11.842255,5.5443464 c 0.602188,0.4627603 1.163269,1.0778819 1.693129,1.8774884 -1.535209,2.3165752 -2.806725,3.2885392 -5.1096212,3.2885392 -2.3028141,0 -4.1293971,-1.4530438 -6.0257547,-3.3423366 1.5352918,-2.3166397 3.4593287,-3.0309058 5.50092,-3.0309058 0.3566174,0 0.7012075,0.018448 1.0345118,0.058184 0.317817,0.037929 0.625419,0.09521 0.9236299,0.1744221" sodipodi:nodetypes="ccscsss" inkscape:connector-curvature="0" />
        <path id="path12562" style="color:#000000;fill:none;stroke:#000000;stroke-width:0.8;stroke-linecap:round" d="m 8.0001121,8.9835702 0.062525,4.4107368 m 1.9700869,-4.6689511 1.066557,3.9086921 m 0.95065,-4.5094291 1.427047,2.9642721 M 6.0000396,8.8577205 4.6250568,12.638306 M 4.0938789,7.7865472 2.4688767,11.000067" inkscape:connector-curvature="0" />
      </g>
    </g>
    <g id="object-unlocked" transform="translate(40,20)">
      <rect y="0" x="0" height="16" width="16" id="rect7395" style="fill:none;stroke:none" />
      <rect id="rect4498" width="12" height="12" x="2" y="2" style="fill:none;stroke:none" />
      <g id="g4496">
        <path inkscape:connector-curvature="0" sodipodi:nodetypes="ccc" id="path8634" d="M 11.36355,6.143036 V 4.4797389 C 10.987183,1.5309824 7.2678793,1.0529666 5.9267976,2.4374635" style="fill:none;stroke:#000000;stroke-linecap:round" />
        <path style="fill:url(#linearGradient4859);fill-rule:evenodd;stroke:#000000;stroke-width:0.8;stroke-linecap:round;stroke-linejoin:round" d="M 5.2561526,13.611466 4.0910502,7.1818125 12.127314,5.7079734 13.337323,12.231028 Z" id="path5839" sodipodi:nodetypes="ccccc" inkscape:connector-curvature="0" />
        <path sodipodi:nodetypes="cccssccsc" id="path5841" d="M 8.3592309,8.1375535 C 7.7261249,8.2533025 7.3244149,8.784029 7.4620817,9.3229279 L 8.379471,9.8498674 C 8.4548211,10.204085 8.0561215,10.949577 8.4555723,11.06873 8.8550231,11.187882 9.2984322,11.11498 9.616026,10.877935 9.9336198,10.64089 9.2338255,10.076006 9.146774,9.7237122 l 0.6172167,-0.77925 C 9.7092493,8.6764575 9.5283533,8.4388864 9.2631821,8.2865406 8.9980183,8.1342614 8.6715366,8.080445 8.3592309,8.1375535 Z" style="fill:#000000;fill-rule:evenodd;stroke-width:0.7211488" inkscape:connector-curvature="0" />
      </g>
    </g>
    <g id="object-locked" transform="translate(40,40)">
      <rect id="rect7319-3" width="16" height="16" x="0" y="0" style="stroke:none;fill:none" />
      <rect y="2" x="2" height="12" width="12" id="rect16900" style="fill:none;stroke:none" />
      <g id="g4521">
        <path inkscape:connector-curvature="0" d="M 11.3973,7.860765 V 5.9641032 c 0,-2.15865 -1.8750225,-3.1401882 -3.3750225,-3.1401882 -1.5,0 -3.3749775,0.9815382 -3.3749775,3.1401882 V 7.860765 Z" style="fill:none;stroke:#000000" id="path16896" />
        <path id="path4841" d="m 3.5222799,12.769188 -3e-6,-6.0061415 9.0000051,6.4e-6 -4e-6,6.0061411 z" style="fill:url(#linearGradient4849);fill-rule:evenodd;stroke:#000000;stroke-width:0.8;stroke-linecap:round;stroke-linejoin:round" inkscape:connector-curvature="0" />
        <use x="0" y="0" id="use3754" transform="rotate(13.509002,8.2866741,6.8740746)" width="1250" height="1250" xlink:href="#path5841" />
      </g>
    </g>
    <g id="sticky_zoom" transform="translate(60,20)">
      <rect y="0" x="0" height="16" width="16" id="rect7397" style="fill:none;stroke:none" />
      <rect y="2" x="2" height="12" width="12" id="rect5058" style="fill:none;stroke:none" />
      <g id="g4567">
        <g id="g4557">
          <circle id="path5056" style="fill:none;stroke:#9e9e9e;stroke-width:0.9467995;stroke-linecap:round;stroke-linejoin:round;stroke-miterlimit:0;stroke-opacity:0.7081545" cx="6.3486633" cy="6.3435893" r="3.8120241" />
          <circle id="path5060" style="fill:url(#linearGradient8492);fill-rule:evenodd;stroke:url(#linearGradient4819);stroke-width:0.7469993;stroke-linecap:round;stroke-linejoin:round;stroke-miterlimit:0" cx="6.0030069" cy="5.9967542" r="3.6409597" />
          <path style="fill:url(#linearGradient8494)" d="M 3.099515,6.967211 C 5.51862,6.481908 5.034799,4.055393 7.453904,3.57009 6.486262,2.599484 4.7928885,3.003887 4.067157,3.57009 3.3414255,4.136293 2.615694,5.996605 3.099515,6.967211 Z" id="path5062" inkscape:connector-curvature="0" />
        </g>
        <g id="g4552">
          <path inkscape:connector-curvature="0" id="path5068" d="M 10.334743,8.6823315 C 10.119122,9.6099237 9.548936,10.181857 8.6241765,10.398137 l 3.2645995,3.014675 c 0.693171,-0.230595 1.059337,-0.734525 1.425469,-1.429835 z" style="fill:url(#linearGradient8496);fill-rule:evenodd" />
          <path inkscape:connector-curvature="0" id="path5070" d="m 8.6241697,10.398144 3.1417323,3.12227 c 0.64398,0.06536 1.802601,-1.064233 1.737438,-1.710183 L 10.334743,8.6823315" style="fill:url(#linearGradient8498);fill-rule:evenodd;stroke:url(#linearGradient8500);stroke-width:0.9822762;stroke-linecap:round;stroke-linejoin:round" />
          <path inkscape:connector-curvature="0" id="path5072" d="M 10.334743,8.6823315 9.3891785,8.3642307 C 9.108395,8.7962456 8.7594778,9.1189172 8.3628389,9.3937141 l 0.2613376,1.0044229 c 0.6439769,0.06536 1.7757285,-1.069856 1.7105665,-1.7158055 z" style="fill:url(#linearGradient8502);fill-rule:evenodd;stroke:url(#linearGradient4811);stroke-width:0.9822762;stroke-linecap:round;stroke-linejoin:round" />
        </g>
      </g>
    </g>
    <g id="transform-affect-stroke" transform="translate(20,80)">
      <rect y="0" x="0" height="16" width="16" id="rect7321" style="fill:none;stroke:none" />
      <rect style="fill:none;stroke:none" id="rect4634" width="12" height="12" x="2" y="2" />
      <g id="g4641">
        <path inkscape:connector-curvature="0" id="path5760" d="M 3,3 H 13 V 7" style="fill:none;stroke:#000000;stroke-width:2px;stroke-linecap:square" />
        <path inkscape:connector-curvature="0" id="path5762" d="m 2.5,6.5 h 7 v 2" style="fill:none;stroke:#000000;stroke-linecap:square" />
        <g id="g4646">
          <path inkscape:connector-curvature="0" id="path12910" d="m 11,9 v 2 H 9 v 1 h 2 v 2 l 3,-2.5 z" style="fill:#000000" />
          <path inkscape:connector-curvature="0" style="fill:none;stroke:#000000;stroke-linecap:square" d="m 6.5,11.5 h 1" id="path5764" />
          <path inkscape:connector-curvature="0" style="fill:none;stroke:#000000" d="M 4,11.5 H 5" id="path5770" />
        </g>
      </g>
    </g>
    <g id="transform-affect-rounded-corners" transform="translate(40,80)">
      <rect y="0" x="0" height="16" width="16" id="rect7323" style="fill:none;stroke:none" />
      <rect style="fill:none;stroke:none" id="rect4670" width="12" height="12" x="2" y="2" />
      <g id="g4677">
        <path inkscape:connector-curvature="0" id="path4436" d="M 2.5,2.5 H 8 c 3.5,0 5.5,2 5.5,5" style="fill:none;stroke:#000000;stroke-linecap:round;stroke-linejoin:round" />
        <path inkscape:connector-curvature="0" id="path4434" d="m 2.5,5.5 h 4 c 2.5,0 3.5,1 3.5,3.3" style="fill:none;stroke:#000000;stroke-linecap:round;stroke-linejoin:round" />
        <g id="g4682">
          <path style="fill:#000000" d="m 11,9 v 2 H 9 v 1 h 2 v 2 l 3,-2.5 z" id="path4607" inkscape:connector-curvature="0" />
          <path id="path4609" d="m 6.5,11.5 h 1" style="fill:none;stroke:#000000;stroke-linecap:square" inkscape:connector-curvature="0" />
          <path id="path4611" d="M 4,11.5 H 5" style="fill:none;stroke:#000000" inkscape:connector-curvature="0" />
        </g>
      </g>
    </g>
    <g id="transform-affect-gradient" transform="translate(60,80)">
      <rect y="0" x="0" height="16" width="16" id="rect7325" style="fill:none;stroke:none" />
      <rect style="fill:none;stroke:none" id="rect4710" width="12" height="12" x="2" y="2" />
      <g id="g4719">
        <path inkscape:connector-curvature="0" id="path12993" d="M 2,2 H 14 V 8 H 2 Z" style="opacity:0.9;fill:url(#linearGradient8709)" />
        <path inkscape:connector-curvature="0" id="path12995" d="m 2,5 h 8 V 9 H 2 Z" style="opacity:0.9;fill:url(#linearGradient8711)" />
        <path inkscape:connector-curvature="0" id="path4430" d="m 2.5,2.5 h 11 v 5" style="fill:none;stroke:#000000;stroke-linecap:square" />
        <path inkscape:connector-curvature="0" id="path4432" d="m 2.5,5.5 h 7 v 3" style="fill:none;stroke:#000000;stroke-linecap:square" />
        <g id="g4724">
          <path style="fill:#000000" d="m 11,9 v 2 H 9 v 1 h 2 v 2 l 3,-2.5 z" id="path4623" inkscape:connector-curvature="0" />
          <path id="path4625" d="m 6.5,11.5 h 1" style="fill:none;stroke:#000000;stroke-linecap:square" inkscape:connector-curvature="0" />
          <path id="path4627" d="M 4,11.5 H 5" style="fill:none;stroke:#000000" inkscape:connector-curvature="0" />
        </g>
      </g>
    </g>
    <g id="transform-affect-pattern" transform="translate(80,80)">
      <rect id="rect7319" width="16" height="16" x="0" y="0" style="fill:none;stroke:none" />
      <rect style="fill:none;stroke:none" y="2" x="2" height="12" width="12" id="rect4750" />
      <g id="g4758">
        <rect style="fill:#000000" id="rect4851" width="11" height="5" x="2" y="3" />
        <path style="fill:#ffffff;fill-opacity:0.9019608" d="m 2,3 v 3.330078 l 0.002,0.002 2.199219,-1.666015 z M 4.201172,4.666016 6.400391,6.332031 8.599609,4.666016 6.400391,3 Z m 4.398437,0 L 10.79883,6.332031 13,4.666016 10.80078,3 Z M 10.79883,6.332031 8.599609,8 H 13 Z M 8.599609,8 6.400391,6.332031 4.201172,8 Z M 4.201172,8 2.001953,6.332031 2,6.333984 V 8 Z" id="rect4538" inkscape:connector-curvature="0" />
        <use x="0" y="0" id="use5102" width="1250" height="1250" xlink:href="#path4430" />
        <g id="g4888">
          <path style="fill:#000000" d="m 11,9 v 2 H 9 v 1 h 2 v 2 l 3,-2.5 z" id="path4615" inkscape:connector-curvature="0" />
          <path id="path4617" d="m 6.5,11.5 h 1" style="fill:none;stroke:#000000;stroke-linecap:square" inkscape:connector-curvature="0" />
          <path id="path4619" d="M 4,11.5 H 5" style="fill:none;stroke:#000000" inkscape:connector-curvature="0" />
        </g>
      </g>
    </g>
    <g id="object-fill" transform="translate(20,120)">
      <rect style="fill:none;stroke:none;stroke-width:0.960796" id="rect175" width="16" height="16" x="0" y="0" />
      <rect y="2" x="2" height="12" width="12" id="rect11240" style="fill:none;stroke:none" />
      <g id="g4997">
        <path id="path11232" d="M 2,2 H 14 V 14 H 2 Z" style="fill:url(#linearGradient5619)" inkscape:connector-curvature="0" />
      </g>
    </g>
    <g id="object-stroke" transform="translate(40,120)">
      <rect y="0" x="0" height="16" width="16" id="rect175-0" style="fill:none;stroke:none" />
      <rect style="fill:none;stroke:none" id="rect4914" width="12" height="12" x="2" y="2" />
      <g id="g5000">
        <rect style="fill:none;stroke:url(#linearGradient5617);stroke-width:1.0000001" id="rect3636" width="11" height="11" x="2.5" y="2.5" inkscape:label="#properties_stroke_paint" />
      </g>
    </g>
    <g id="object-stroke-style" transform="translate(60,120)">
      <rect y="0" x="0" height="16" width="16" id="rect150" style="fill:none;stroke:none" />
      <rect style="fill:none;stroke:none" id="rect4935" width="12" height="12" x="2" y="2" />
      <g id="g4943">
        <path inkscape:connector-curvature="0" d="m 2,4 h 9 V 2 L 14,4.5 11,7 V 5 H 2 Z" id="rect12874" style="fill:#000000" />
        <path inkscape:connector-curvature="0" id="path10529" d="m 2.5,9.5 h 1" style="fill:none;stroke:#000000;stroke-linecap:square" />
        <use x="0" y="0" id="use4611" transform="translate(3)" width="1250" height="1250" xlink:href="#path10529" />
        <path inkscape:connector-curvature="0" style="fill:none;stroke:#000000;stroke-linecap:square" d="m 8.5,9.5 h 1" id="use10533" />
        <use x="0" y="0" id="use10535" width="1250" height="1250" transform="translate(3)" xlink:href="#use10533" />
        <path inkscape:connector-curvature="0" id="path10541" d="m 2.5,13.5 h 11" style="fill:none;stroke:#000000;stroke-linecap:square" />
      </g>
    </g>
    <g id="draw-use-tilt" transform="translate(20,160)">
      <rect y="0" x="0" height="16" width="16" id="rect7509" style="fill:none;stroke:none" />
      <rect id="use_tilt" width="12" height="12" x="2" y="2" style="fill:none;stroke:none" />
      <g id="g4960">
        <path inkscape:connector-curvature="0" d="M 7.2187,4.381769 6.5,4 l -4,8.5 h 10 v -1" style="fill:none;stroke:url(#linearGradient4610);stroke-linecap:round;stroke-linejoin:round" id="path4036" />
        <path inkscape:connector-curvature="0" id="path15733" d="m 5,8 c 1.5,0.5 3,2.5 2.5,4.5" style="fill:none;stroke:url(#linearGradient4618);stroke-linecap:round" />
      </g>
    </g>
    <g id="draw-use-pressure" transform="translate(40,160)">
      <rect y="0" x="0" height="16" width="16" id="rect7511" style="fill:none;stroke:none" />
      <rect style="fill:none" id="use_pressure" width="12" height="12" x="2" y="2" />
      <g id="g4977">
        <path inkscape:connector-curvature="0" id="path7145" d="M 2,13 H 13 V 9 c -2.5,2 -6.5,3.5 -11,3.5 z" style="fill:#000000" />
        <path inkscape:connector-curvature="0" id="path4622" d="M 7,2 V 7 H 4 L 7.5,11 11,7 H 8 V 2 Z" style="fill:url(#linearGradient4649)" />
      </g>
    </g>
    <g id="draw-trace-background" transform="translate(60,160)">
      <rect id="rect7319-3-1" width="16" height="16" x="0" y="0" style="fill:none;stroke:none" />
      <rect y="2" x="2" height="12" width="12" id="rect9321" style="fill:none;stroke:none" />
      <g id="g4994">
        <rect y="2" x="-13" height="11" width="11" id="rect9329" style="fill:url(#linearGradient9331)" transform="scale(-1,1)" />
        <path inkscape:connector-curvature="0" style="fill:#000000" d="M 2,13 H 13 V 9 c -2.5,2 -6.5,3.5 -11,3.5 z" id="path9323" sodipodi:nodetypes="ccccc" />
      </g>
    </g>
    <g id="connector-edit" transform="translate(20,200)">
      <rect id="rect3763" width="16" height="16" x="0" y="0" style="fill:none;stroke:none" />
      <rect y="2" x="2" height="12" width="12" id="rect5213" style="fill:none;stroke:none" />
      <g id="g5017">
        <rect y="2.5" x="2.5" height="3" width="3" id="rect5217" style="fill:#ff0000;fill-opacity:0.4;fill-rule:evenodd;stroke:#ff0000;stroke-linecap:round;stroke-linejoin:round;stroke-miterlimit:0" />
        <path inkscape:connector-curvature="0" style="fill:#000000;stroke:#ffffff;stroke-width:0.5;stroke-linecap:round;stroke-linejoin:round" d="M 3.999973,4.000029 9.160977,12.93899 12.93901,9.160956 Z" id="path5221" />
      </g>
    </g>
    <g id="connector-ignore" transform="translate(40,200)">
      <rect id="rect3765" width="16" height="16" x="0" y="0" style="fill:none;stroke:none" />
      <rect style="fill:none;stroke:none" y="2" x="2" height="12" width="12" id="rect5045" />
      <g id="g5051">
        <rect style="fill:none;stroke:url(#linearGradient3755);stroke-width:1;stroke-linejoin:round;stroke-miterlimit:0" id="rect5792" width="5" height="2" x="4.5" y="6.5" />
        <path inkscape:connector-curvature="0" id="path7667" d="m 4.5,3.5 6,8" style="fill:none;stroke:#3c3c3c;stroke-linecap:round;stroke-opacity:0.8469945" />
        <rect style="fill:none;stroke:#000000;stroke-linejoin:round;stroke-miterlimit:0" id="rect5763" width="3" height="1" x="2.5" y="2.5" />
        <rect y="11.5" x="9.5" height="1" width="3" id="rect3774" style="fill:none;stroke:#000000;stroke-linejoin:round;stroke-miterlimit:0" />
      </g>
    </g>
    <g id="connector-avoid" transform="translate(60,200)">
      <rect id="rect3780" width="16" height="16" x="0" y="0" style="fill:none;stroke:none" />
      <rect style="fill:none;stroke:none" y="2" x="2" height="12" width="12" id="rect5071" />
      <g id="g5077">
        <path inkscape:connector-curvature="0" id="path12164" d="m 5.5,3.5 5,3 v 5" style="fill:none;stroke:#3c3c3c;stroke-linecap:round;stroke-opacity:0.8306011" />
        <rect style="fill:none;stroke:#000000;stroke-linejoin:round;stroke-miterlimit:0" id="rect8286" width="3" height="1" x="2.5" y="2.5" />
        <rect style="fill:none;stroke:#000000;stroke-linejoin:round;stroke-miterlimit:0" id="rect8282" width="3" height="1" x="9.5" y="11.5" />
        <rect style="fill:none;stroke:url(#linearGradient3759);stroke-linejoin:round;stroke-miterlimit:0" id="rect8274" width="5" height="2" x="2.5" y="7.5" />
      </g>
    </g>
    <g id="connector-orthogonal" transform="translate(80,200)">
      <rect id="rect3784" width="16" height="16" x="0" y="0" style="fill:none;stroke:none" />
      <rect style="fill:none;stroke:none" y="2" x="2" height="12" width="12" id="rect5094" />
      <g id="g5099">
        <path inkscape:connector-curvature="0" id="path5193" d="m 9.5,3 h -2 v 9 h -3" style="fill:none;stroke:#3c3c3c;stroke-linecap:round;stroke-opacity:0.8306011" />
        <rect style="fill:none;stroke:#000000;stroke-linejoin:round;stroke-miterlimit:0" id="rect5197" width="3" height="1" x="9.5" y="2.5" />
        <rect style="fill:none;stroke:#000000;stroke-linejoin:round;stroke-miterlimit:0" id="rect5201" width="3" height="1" x="2.5" y="11.5" />
      </g>
    </g>
    <g id="connector-new-connpoint" transform="translate(100,200)">
      <rect id="rect3788" width="16" height="16" x="0" y="0" style="fill:none;stroke:none" />
      <rect y="2" x="2" height="12" width="12" id="rect5199" style="fill:none;stroke:none" />
      <g id="g5116">
        <path sodipodi:type="arc" style="fill:#b0c5da;fill-rule:evenodd;stroke:#0000ff;stroke-miterlimit:1.5" id="path6018" sodipodi:cx="12.5" sodipodi:cy="12.5" sodipodi:rx="10" sodipodi:ry="10" d="M 2.5,12.499997 A 10,10 0 0 1 12.5,2.5 l 0,10 z" sodipodi:start="3.141593" sodipodi:end="4.712389" />
        <rect y="3.5" x="4.5" height="3" width="3" id="rect5202" style="fill:#ff0000;fill-opacity:0.4;fill-rule:evenodd;stroke:#ff0000;stroke-linecap:round;stroke-linejoin:round;stroke-miterlimit:0" />
      </g>
    </g>
    <g id="connector-remove-connpoint" transform="translate(120,200)">
      <rect id="rect3790" width="16" height="16" x="0" y="0" style="fill:none;stroke:none" />
      <rect style="fill:none;stroke:none" id="rect6086" width="12" height="12" x="2" y="2" />
      <g id="g5144">
        <g id="g5149">
          <path inkscape:connector-curvature="0" style="fill:#aa0000;stroke:#aa0000" d="M 7.5,8 8,7.5 h 4 L 12.5,8 v 4 L 12,12.5 H 8 L 7.5,12 Z" id="path6090" />
          <path inkscape:connector-curvature="0" id="path6092" d="m 8,8 4,4" style="fill:none;stroke:#ffffff;stroke-width:1.2" />
          <path inkscape:connector-curvature="0" id="path6094" d="M 12,8 8,12" style="fill:none;stroke:#ffffff;stroke-width:1.2" />
        </g>
        <rect style="fill:#ff0000;fill-opacity:0.4;fill-rule:evenodd;stroke:#ff0000;stroke-linecap:round;stroke-linejoin:round;stroke-miterlimit:0" id="rect6096" width="3" height="3" x="3.5" y="3.5" />
      </g>
    </g>
  </g>
</svg>
